%YAML 1.1
%TAG !u! tag:unity3d.com,2011:
--- !u!1001 &100100000
Prefab:
  m_ObjectHideFlags: 1
  serializedVersion: 2
  m_Modification:
    m_TransformParent: {fileID: 0}
    m_Modifications: []
    m_RemovedComponents: []
  m_SourcePrefab: {fileID: 0}
  m_RootGameObject: {fileID: 1512901354110390}
  m_IsPrefabAsset: 1
--- !u!1 &1512901354110390
GameObject:
  m_ObjectHideFlags: 0
  m_CorrespondingSourceObject: {fileID: 0}
  m_PrefabInternal: {fileID: 100100000}
  serializedVersion: 6
  m_Component:
  - component: {fileID: 4824933028121678}
  - component: {fileID: 114338285557091144}
  m_Layer: 0
  m_Name: BattleManager
  m_TagString: Untagged
  m_Icon: {fileID: 0}
  m_NavMeshLayer: 0
  m_StaticEditorFlags: 0
  m_IsActive: 1
--- !u!4 &4824933028121678
Transform:
  m_ObjectHideFlags: 1
  m_CorrespondingSourceObject: {fileID: 0}
  m_PrefabInternal: {fileID: 100100000}
  m_GameObject: {fileID: 1512901354110390}
  m_LocalRotation: {x: 0, y: 0, z: 0, w: 1}
  m_LocalPosition: {x: 0, y: 0, z: 0}
  m_LocalScale: {x: 1, y: 1, z: 1}
  m_Children: []
  m_Father: {fileID: 0}
  m_RootOrder: 0
  m_LocalEulerAnglesHint: {x: 0, y: 0, z: 0}
--- !u!114 &114338285557091144
MonoBehaviour:
  m_ObjectHideFlags: 1
  m_CorrespondingSourceObject: {fileID: 0}
  m_PrefabInternal: {fileID: 100100000}
  m_GameObject: {fileID: 1512901354110390}
  m_Enabled: 1
  m_EditorHideFlags: 0
  m_Script: {fileID: 11500000, guid: b59390f7f896f7343b022ddfd4dadb59, type: 3}
  m_Name: 
  m_EditorClassIdentifier: 
  battleState: 0
  turnInput: 1
  turnChoise:
    team: 
    Attacker: 
    AttackersGameObject: {fileID: 0}
    TargetsGameObject: {fileID: 0}
  T1CharactersInBattle: []
  T2CharactersInBattle: []
  targetButton: {fileID: 1546927894477852, guid: ec0f809b1eaa63c41ab5725b2e8d27db,
    type: 2}
  Spacer: {fileID: 0}
  ActionPanel: {fileID: 0}
  SelectTargetPanel: {fileID: 0}
  listButtons: []
  passTurnObject: {fileID: 0}
